TP 3 - Final Muestreo Polietápico
…
#Generar IDs
presidenciales$mesa_id_unico = paste(presidenciales$distrito_id, presidenciales$seccion_id, presidenciales$circuito_id, presidenciales$mesa_id)

presidenciales$circuito_id_unico = paste(presidenciales$distrito_id, presidenciales$seccion_id, presidenciales$circuito_id)
  
# Agrupamos los datos por distrito para conocer el número de mesas en cada estrato
mesas_por_distrito <- presidenciales %>%
  group_by(distrito_nombre) %>%
  summarise(mesas_totales = n_distinct(mesa_id_unico))

mesas_por_distrito

# A tibble: 24 × 2
   distrito_nombre                 mesas_totales
   <chr>                                   <int>
 1 Buenos Aires                            38074
 2 Catamarca                                1058
 3 Chaco                                    2947
 4 Chubut                                   1416
 5 Ciudad Autónoma de Buenos Aires          7326
 6 Corrientes                               2760
 7 Córdoba                                  9097
 8 Entre Ríos                               3432
 9 Formosa                                  1484
10 Jujuy                                    1825
# ℹ 14 more rows
…
